TEME/TEMA 1/tester_tema_1/build/bin/test_system/isim.log
ISim log file
Running: tester.exe -intstyle ise -tclbatch ..\..\..\scripts\gui.tcl -gui 
ISim P.20131013 (signature 0x7708f090)
WARNING: A WEBPACK license was found.
WARNING: Please use Xilinx License Configuration Manager to check out a full ISim license.
WARNING: ISim will run in Lite mode. Please refer to the ISim documentation for more information on the differences between the Lite and the Full version.
This is a Lite version of ISim.
Time resolution is 1 ps
# onerror resume
# wave add /
# run 10 ms
Simulator is doing circuit initialization process.
Finished circuit initialization process.
Testing inputs: 
TEMP: 25  22  18  15  18 , Enable: 00111, Results: LED = 00000001, alert = 1	ok
Testing inputs: 
TEMP: 15  26  19  27  16 , Enable: 10100, Results: LED = 00000001, alert = 1	ok
Testing inputs: 
TEMP: 19  15  17  18  22 , Enable: 11000, Results: LED = 00000001, alert = 1	ok
Testing inputs: 
TEMP: 30  19  18  16  21 , Enable: 00110, Results: LED = 00000001, alert = 1	ok
Testing inputs: 
TEMP: 18  24  18  18  16 , Enable: 10001, Results: LED = 00000001, alert = 1	ok
Testing inputs: 
TEMP: 30  24  19  16  15 , Enable: 00110, Results: LED = 00000001, alert = 1	ok
Testing inputs: 
TEMP: 22  16  27  16  19 , Enable: 00011, Results: LED = 00000001, alert = 1	ok
Testing inputs: 
TEMP: 27  15  19  30  18 , Enable: 01101, Results: LED = 00000001, alert = 1	ok
Testing inputs: 
TEMP: 19  18  26  17  17 , Enable: 01010, Results: LED = 00000001, alert = 1	ok
Testing inputs: 
TEMP: 20  15  16  18  25 , Enable: 11000, Results: LED = 00000001, alert = 1	ok
Testing inputs: 
TEMP: 15  23  18  17  20 , Enable: 10101, Results: LED = 00000001, alert = 1	ok
Testing inputs: 
TEMP: 16  16  22  15  30 , Enable: 01110, Results: LED = 00000001, alert = 1	ok
Testing inputs: 
TEMP: 20  17  15  18  24 , Enable: 10110, Results: LED = 00000001, alert = 1	ok
Testing inputs: 
TEMP: 17  22  16  15  21 , Enable: 10011, Results: LED = 00000001, alert = 1	ok
Testing inputs: 
TEMP: 16  30  16  15  23 , Enable: 10111, Results: LED = 00000001, alert = 1	ok
Testing inputs: 
TEMP: 15  21  24  15  17 , Enable: 10111, Results: LED = 00000001, alert = 1	ok
Testing inputs: 
TEMP: 19  15  20  17  30 , Enable: 11110, Results: LED = 00000001, alert = 1	ok
Testing inputs: 
TEMP: 23  15  25  15  16 , Enable: 01111, Results: LED = 00000001, alert = 1	ok
Testing inputs: 
TEMP: 16  22  18  18  15 , Enable: 11011, Results: LED = 00000001, alert = 1	ok
Testing inputs: 
TEMP: 17  16  25  22  16 , Enable: 11011, Results: LED = 00000001, alert = 1	ok
Testing inputs: 
TEMP: 18  25  16  15  15 , Enable: 11111, Results: LED = 00000001, alert = 1	ok
Testing inputs: 
TEMP: 15  18  16  22  18 , Enable: 11111, Results: LED = 00000001, alert = 1	ok
Testing inputs: 
TEMP: 15  16  24  15  19 , Enable: 11111, Results: LED = 00000001, alert = 1	ok
Testing inputs: 
TEMP: 16  15  16  15  27 , Enable: 11111, Results: LED = 00000001, alert = 1	ok
Testing inputs: 
TEMP: 20  17  18  17  17 , Enable: 11111, Results: LED = 00000001, alert = 1	ok
Testing inputs: 
TEMP: 17  19  25  27  15 , Enable: 11000, Results: LED = 00000001, alert = 1	ok
Testing inputs: 
TEMP: 15  21  24  29  19 , Enable: 11000, Results: LED = 00000001, alert = 1	ok
Testing inputs: 
TEMP: 27  21  15  27  22 , Enable: 01100, Results: LED = 00000001, alert = 1	ok
Testing inputs: 
TEMP: 30  17  17  29  19 , Enable: 00101, Results: LED = 00000001, alert = 1	ok
Testing inputs: 
TEMP: 18  15  30  24  21 , Enable: 01001, Results: LED = 00000001, alert = 1	ok
Testing inputs: 
TEMP: 19  26  20  17  16 , Enable: 10101, Results: LED = 00000001, alert = 1	ok
Testing inputs: 
TEMP: 20  22  17  21  20 , Enable: 00101, Results: LED = 00000001, alert = 0	ok
Testing inputs: 
TEMP: 27  29  22  27  15 , Enable: 00101, Results: LED = 00000001, alert = 0	ok
Testing inputs: 
TEMP: 16  16  18  23  19 , Enable: 00101, Results: LED = 00000001, alert = 0	ok
Testing inputs: 
TEMP: 30  16  21  29  20 , Enable: 01100, Results: LED = 00000001, alert = 0	ok
Testing inputs: 
TEMP: 17  17  22  16  27 , Enable: 11100, Results: LED = 00000001, alert = 0	ok
Testing inputs: 
TEMP: 15  21  23  15  16 , Enable: 11110, Results: LED = 00000001, alert = 0	ok
Testing inputs: 
TEMP: 18  21  20  15  23 , Enable: 10011, Results: LED = 00000001, alert = 0	ok
Testing inputs: 
TEMP: 19  28  16  18  19 , Enable: 10011, Results: LED = 00000001, alert = 0	ok
Testing inputs: 
TEMP: 26  23  18  15  17 , Enable: 01110, Results: LED = 00000001, alert = 0	ok
Testing inputs: 
TEMP: 24  23  20  15  17 , Enable: 01111, Results: LED = 00000001, alert = 0	ok
Testing inputs: 
TEMP: 15  22  16  17  20 , Enable: 01111, Results: LED = 00000001, alert = 0	ok
Testing inputs: 
TEMP: 18  21  21  16  20 , Enable: 10111, Results: LED = 00000001, alert = 0	ok
Testing inputs: 
TEMP: 21  17  17  16  22 , Enable: 11111, Results: LED = 00000001, alert = 0	ok
Testing inputs: 
TEMP: 25  24  17  16  18 , Enable: 01111, Results: LED = 00000001, alert = 0	ok
Testing inputs: 
TEMP: 24  19  19  15  17 , Enable: 11111, Results: LED = 00000001, alert = 0	ok
Testing inputs: 
TEMP: 18  18  21  15  22 , Enable: 11111, Results: LED = 00000001, alert = 0	ok
Testing inputs: 
TEMP: 29  18  16  16  15 , Enable: 11111, Results: LED = 00000001, alert = 0	ok
Testing inputs: 
TEMP: 21  16  19  17  21 , Enable: 11111, Results: LED = 00000001, alert = 0	ok
Testing inputs: 
TEMP: 16  21  19  17  21 , Enable: 11111, Results: LED = 00000001, alert = 0	ok
Testing inputs: 
TEMP: 22  22  24  17  21 , Enable: 00011, Results: LED = 00000001, alert = 0	ok
Testing inputs: 
TEMP: 30  20  15  16  18 , Enable: 01001, Results: LED = 00000001, alert = 0	ok
Testing inputs: 
TEMP: 20  19  16  20  17 , Enable: 10011, Results: LED = 00000001, alert = 0	ok
Testing inputs: 
TEMP: 21  15  23  20  19 , Enable: 01100, Results: LED = 00000001, alert = 0	ok
Testing inputs: 
TEMP: 29  15  16  30  15 , Enable: 01111, Results: LED = 00000001, alert = 0	ok
Testing inputs: 
TEMP: 15  15  15  24  16 , Enable: 10010, Results: LED = 00000011, alert = 0	ok
Testing inputs: 
TEMP: 30  26  16  17  23 , Enable: 00101, Results: LED = 00000011, alert = 0	ok
Testing inputs: 
TEMP: 23  29  15  22  21 , Enable: 00111, Results: LED = 00000001, alert = 0	ok
Testing inputs: 
TEMP: 21  27  21  16  20 , Enable: 10110, Results: LED = 00000001, alert = 0	ok
Testing inputs: 
TEMP: 25  18  16  20  15 , Enable: 11001, Results: LED = 00000001, alert = 0	ok
Testing inputs: 
TEMP: 18  26  22  18  20 , Enable: 10111, Results: LED = 00000011, alert = 0	ok
Testing inputs: 
TEMP: 26  25  17  16  30 , Enable: 10110, Results: LED = 00000011, alert = 0	ok
Testing inputs: 
TEMP: 18  27  17  21  22 , Enable: 10111, Results: LED = 00000011, alert = 0	ok
Testing inputs: 
TEMP: 26  16  22  17  23 , Enable: 01111, Results: LED = 00000011, alert = 0	ok
Testing inputs: 
TEMP: 20  26  27  16  15 , Enable: 10111, Results: LED = 00000011, alert = 0	ok
Testing inputs: 
TEMP: 18  17  17  20  24 , Enable: 10111, Results: LED = 00000011, alert = 0	ok
Testing inputs: 
TEMP: 23  16  18  16  22 , Enable: 11101, Results: LED = 00000011, alert = 0	ok
Testing inputs: 
TEMP: 15  16  28  28  20 , Enable: 11101, Results: LED = 00000011, alert = 0	ok
Testing inputs: 
TEMP: 24  18  17  20  17 , Enable: 11011, Results: LED = 00000011, alert = 0	ok
Testing inputs: 
TEMP: 18  22  19  22  16 , Enable: 01111, Results: LED = 00000011, alert = 0	ok
Testing inputs: 
TEMP: 16  26  15  19  23 , Enable: 11111, Results: LED = 00000011, alert = 0	ok
Testing inputs: 
TEMP: 25  18  23  18  15 , Enable: 11111, Results: LED = 00000011, alert = 0	ok
Testing inputs: 
TEMP: 17  15  29  18  20 , Enable: 11111, Results: LED = 00000011, alert = 0	ok
Testing inputs: 
TEMP: 19  15  21  17  27 , Enable: 11111, Results: LED = 00000011, alert = 0	ok
Testing inputs: 
TEMP: 17  26  16  20  20 , Enable: 11111, Results: LED = 00000011, alert = 0	ok
Testing inputs: 
TEMP: 26  17  21  19  21 , Enable: 00110, Results: LED = 00000011, alert = 0	ok
Testing inputs: 
TEMP: 20  16  17  24  23 , Enable: 00101, Results: LED = 00000011, alert = 0	ok
Testing inputs: 
TEMP: 23  17  15  28  18 , Enable: 11000, Results: LED = 00000011, alert = 0	ok
Testing inputs: 
TEMP: 17  23  15  20  16 , Enable: 11010, Results: LED = 00000011, alert = 0	ok
Testing inputs: 
TEMP: 21  27  24  21  19 , Enable: 10001, Results: LED = 00000011, alert = 0	ok
Testing inputs: 
TEMP: 18  21  22  22  25 , Enable: 11100, Results: LED = 00000011, alert = 0	ok
Testing inputs: 
TEMP: 15  29  21  21  19 , Enable: 00111, Results: LED = 00000011, alert = 0	ok
Testing inputs: 
TEMP: 15  15  17  25  26 , Enable: 11011, Results: LED = 00000011, alert = 0	ok
Testing inputs: 
TEMP: 15  16  24  25  16 , Enable: 00011, Results: LED = 00000111, alert = 0	ok
Testing inputs: 
TEMP: 16  19  23  22  21 , Enable: 01010, Results: LED = 00000111, alert = 0	ok
Testing inputs: 
TEMP: 15  20  26  26  27 , Enable: 11001, Results: LED = 00000111, alert = 0	ok
Testing inputs: 
TEMP: 26  19  20  23  22 , Enable: 01110, Results: LED = 00000111, alert = 0	ok
Testing inputs: 
TEMP: 20  27  24  15  23 , Enable: 10111, Results: LED = 00000111, alert = 0	ok
Testing inputs: 
TEMP: 27  16  25  19  28 , Enable: 11010, Results: LED = 00000111, alert = 0	ok
Testing inputs: 
TEMP: 30  17  20  26  15 , Enable: 11101, Results: LED = 00000111, alert = 0	ok
Testing inputs: 
TEMP: 27  25  15  16  24 , Enable: 11110, Results: LED = 00000111, alert = 0	ok
Testing inputs: 
TEMP: 27  17  24  30  15 , Enable: 11101, Results: LED = 00000111, alert = 0	ok
Testing inputs: 
TEMP: 22  28  19  15  19 , Enable: 11111, Results: LED = 00000111, alert = 0	ok
Testing inputs: 
TEMP: 26  18  23  27  16 , Enable: 11101, Results: LED = 00000111, alert = 0	ok
Testing inputs: 
TEMP: 18  17  21  27  28 , Enable: 11110, Results: LED = 00000111, alert = 0	ok
Testing inputs: 
TEMP: 20  23  23  18  20 , Enable: 11111, Results: LED = 00000111, alert = 0	ok
Testing inputs: 
TEMP: 22  18  21  20  23 , Enable: 11111, Results: LED = 00000111, alert = 0	ok
Testing inputs: 
TEMP: 20  17  22  26  19 , Enable: 11111, Results: LED = 00000111, alert = 0	ok
Testing inputs: 
TEMP: 16  17  17  26  28 , Enable: 11111, Results: LED = 00000111, alert = 0	ok
Testing inputs: 
TEMP: 20  18  16  22  28 , Enable: 11111, Results: LED = 00000111, alert = 0	ok
Testing inputs: 
TEMP: 25  22  15  20  27 , Enable: 00101, Results: LED = 00000111, alert = 0	ok
Testing inputs: 
TEMP: 18  22  20  19  21 , Enable: 01101, Results: LED = 00000111, alert = 0	ok
Testing inputs: 
TEMP: 21  18  21  28  25 , Enable: 10100, Results: LED = 00000111, alert = 0	ok
Testing inputs: 
TEMP: 20  29  18  25  22 , Enable: 10110, Results: LED = 00000111, alert = 0	ok
Testing inputs: 
TEMP: 29  18  25  25  16 , Enable: 11001, Results: LED = 00000111, alert = 0	ok
Testing inputs: 
TEMP: 18  16  26  21  22 , Enable: 01111, Results: LED = 00000111, alert = 0	ok
Testing inputs: 
TEMP: 28  25  27  16  23 , Enable: 00110, Results: LED = 00001111, alert = 0	ok
Testing inputs: 
TEMP: 19  28  19  25  15 , Enable: 01001, Results: LED = 00001111, alert = 0	ok
Testing inputs: 
TEMP: 17  28  26  27  15 , Enable: 10111, Results: LED = 00000111, alert = 0	ok
Testing inputs: 
TEMP: 15  22  22  20  22 , Enable: 01110, Results: LED = 00000111, alert = 0	ok
Testing inputs: 
TEMP: 15  17  21  16  27 , Enable: 01101, Results: LED = 00001111, alert = 0	ok
Testing inputs: 
TEMP: 17  23  29  25  19 , Enable: 11010, Results: LED = 00001111, alert = 0	ok
Testing inputs: 
TEMP: 22  18  28  15  19 , Enable: 01101, Results: LED = 00001111, alert = 0	ok
Testing inputs: 
TEMP: 30  16  26  19  21 , Enable: 11011, Results: LED = 00001111, alert = 0	ok
Testing inputs: 
TEMP: 20  21  22  18  26 , Enable: 11111, Results: LED = 00000111, alert = 0	ok
Testing inputs: 
TEMP: 29  15  20  29  23 , Enable: 01111, Results: LED = 00001111, alert = 0	ok
Testing inputs: 
TEMP: 30  29  17  18  22 , Enable: 10111, Results: LED = 00001111, alert = 0	ok
Testing inputs: 
TEMP: 17  28  22  23  25 , Enable: 10111, Results: LED = 00001111, alert = 0	ok
Testing inputs: 
TEMP: 23  19  23  17  26 , Enable: 11111, Results: LED = 00001111, alert = 0	ok
Testing inputs: 
TEMP: 23  23  21  27  16 , Enable: 10111, Results: LED = 00001111, alert = 0	ok
Testing inputs: 
TEMP: 24  24  16  17  28 , Enable: 11111, Results: LED = 00001111, alert = 0	ok
Testing inputs: 
TEMP: 17  20  17  28  27 , Enable: 11111, Results: LED = 00001111, alert = 0	ok
Testing inputs: 
TEMP: 25  18  29  21  16 , Enable: 11111, Results: LED = 00001111, alert = 0	ok
Testing inputs: 
TEMP: 28  17  20  24  20 , Enable: 11111, Results: LED = 00001111, alert = 0	ok
Testing inputs: 
TEMP: 16  24  20  19  30 , Enable: 11111, Results: LED = 00001111, alert = 0	ok
Testing inputs: 
TEMP: 21  25  23  25  19 , Enable: 11101, Results: LED = 00001111, alert = 0	ok
Testing inputs: 
TEMP: 28  27  16  25  16 , Enable: 10001, Results: LED = 00001111, alert = 0	ok
Testing inputs: 
TEMP: 23  23  18  29  15 , Enable: 00011, Results: LED = 00001111, alert = 0	ok
Testing inputs: 
TEMP: 15  25  19  17  15 , Enable: 01100, Results: LED = 00001111, alert = 0	ok
Testing inputs: 
TEMP: 28  30  28  21  16 , Enable: 00101, Results: LED = 00001111, alert = 0	ok
Testing inputs: 
TEMP: 21  24  21  19  24 , Enable: 00101, Results: LED = 00011111, alert = 0	ok
Testing inputs: 
TEMP: 24  20  17  30  17 , Enable: 01011, Results: LED = 00001111, alert = 0	ok
Testing inputs: 
TEMP: 15  16  18  28  27 , Enable: 00101, Results: LED = 00011111, alert = 0	ok
Testing inputs: 
TEMP: 26  20  23  21  25 , Enable: 01001, Results: LED = 00011111, alert = 0	ok
Testing inputs: 
TEMP: 23  25  25  20  21 , Enable: 00110, Results: LED = 00011111, alert = 0	ok
Testing inputs: 
TEMP: 21  23  18  27  19 , Enable: 01110, Results: LED = 00011111, alert = 0	ok
Testing inputs: 
TEMP: 24  28  21  22  17 , Enable: 11111, Results: LED = 00001111, alert = 0	ok
Testing inputs: 
TEMP: 28  24  26  18  17 , Enable: 01110, Results: LED = 00011111, alert = 0	ok
Testing inputs: 
TEMP: 29  27  19  22  20 , Enable: 10101, Results: LED = 00011111, alert = 0	ok
Testing inputs: 
TEMP: 19  27  25  20  19 , Enable: 11101, Results: LED = 00011111, alert = 0	ok
Testing inputs: 
TEMP: 21  23  18  29  24 , Enable: 11110, Results: LED = 00011111, alert = 0	ok
Testing inputs: 
TEMP: 17  30  25  19  18 , Enable: 11110, Results: LED = 00011111, alert = 0	ok
Testing inputs: 
TEMP: 21  27  25  21  18 , Enable: 11101, Results: LED = 00011111, alert = 0	ok
Testing inputs: 
TEMP: 21  25  23  27  20 , Enable: 10111, Results: LED = 00011111, alert = 0	ok
Testing inputs: 
TEMP: 27  25  18  21  18 , Enable: 11110, Results: LED = 00011111, alert = 0	ok
Testing inputs: 
TEMP: 20  23  20  28  23 , Enable: 11111, Results: LED = 00011111, alert = 0	ok
Testing inputs: 
TEMP: 27  22  19  30  16 , Enable: 11111, Results: LED = 00011111, alert = 0	ok
Testing inputs: 
TEMP: 21  25  21  21  26 , Enable: 11111, Results: LED = 00011111, alert = 0	ok
Testing inputs: 
TEMP: 23  26  21  20  24 , Enable: 11111, Results: LED = 00011111, alert = 0	ok
Testing inputs: 
TEMP: 19  20  29  23  23 , Enable: 11111, Results: LED = 00011111, alert = 0	ok
Testing inputs: 
TEMP: 16  27  29  23  20 , Enable: 11101, Results: LED = 00011111, alert = 0	ok
Testing inputs: 
TEMP: 16  27  19  23  28 , Enable: 01100, Results: LED = 00011111, alert = 0	ok
Testing inputs: 
TEMP: 24  19  23  27  22 , Enable: 11011, Results: LED = 00011111, alert = 0	ok
Testing inputs: 
TEMP: 26  30  30  17  16 , Enable: 01001, Results: LED = 00011111, alert = 0	ok
Testing inputs: 
TEMP: 27  17  29  19  23 , Enable: 10011, Results: LED = 00011111, alert = 0	ok
Testing inputs: 
TEMP: 24  26  16  24  27 , Enable: 01111, Results: LED = 00011111, alert = 0	ok
Testing inputs: 
TEMP: 17  26  26  21  20 , Enable: 01111, Results: LED = 00011111, alert = 0	ok
Testing inputs: 
TEMP: 25  21  25  26  23 , Enable: 01011, Results: LED = 00011111, alert = 0	ok
Testing inputs: 
TEMP: 25  27  18  19  22 , Enable: 11011, Results: LED = 00011111, alert = 0	ok
Testing inputs: 
TEMP: 27  22  30  25  30 , Enable: 01010, Results: LED = 00111111, alert = 0	ok
Testing inputs: 
TEMP: 21  28  20  22  21 , Enable: 01011, Results: LED = 00111111, alert = 0	ok
Testing inputs: 
TEMP: 21  22  24  22  28 , Enable: 10011, Results: LED = 00111111, alert = 0	ok
Testing inputs: 
TEMP: 30  18  21  22  25 , Enable: 11101, Results: LED = 00111111, alert = 0	ok
Testing inputs: 
TEMP: 30  21  23  22  28 , Enable: 01111, Results: LED = 00111111, alert = 0	ok
Testing inputs: 
TEMP: 25  19  17  24  28 , Enable: 10111, Results: LED = 00111111, alert = 0	ok
Testing inputs: 
TEMP: 24  25  23  25  21 , Enable: 11011, Results: LED = 00111111, alert = 0	ok
Testing inputs: 
TEMP: 30  25  15  29  26 , Enable: 01111, Results: LED = 00111111, alert = 0	ok
Testing inputs: 
TEMP: 20  16  28  17  30 , Enable: 10111, Results: LED = 00111111, alert = 0	ok
Testing inputs: 
TEMP: 29  27  17  21  28 , Enable: 10111, Results: LED = 00111111, alert = 0	ok
Testing inputs: 
TEMP: 27  19  28  30  19 , Enable: 11011, Results: LED = 00111111, alert = 0	ok
Testing inputs: 
TEMP: 25  29  22  27  16 , Enable: 11111, Results: LED = 00111111, alert = 0	ok
Testing inputs: 
TEMP: 20  29  26  19  25 , Enable: 11111, Results: LED = 00111111, alert = 0	ok
Testing inputs: 
TEMP: 27  18  30  19  25 , Enable: 11111, Results: LED = 00111111, alert = 0	ok
Testing inputs: 
TEMP: 24  23  26  25  21 , Enable: 11111, Results: LED = 00111111, alert = 0	ok
Testing inputs: 
TEMP: 27  16  25  23  28 , Enable: 11111, Results: LED = 00111111, alert = 0	ok
Testing inputs: 
TEMP: 28  24  27  21  16 , Enable: 00110, Results: LED = 00111111, alert = 0	ok
Testing inputs: 
TEMP: 29  21  27  28  19 , Enable: 11101, Results: LED = 00111111, alert = 0	ok
Testing inputs: 
TEMP: 19  25  28  18  28 , Enable: 11100, Results: LED = 00111111, alert = 0	ok
Testing inputs: 
TEMP: 29  25  21  30  27 , Enable: 00101, Results: LED = 00111111, alert = 0	ok
Testing inputs: 
TEMP: 29  21  15  20  22 , Enable: 11001, Results: LED = 00111111, alert = 0	ok
Testing inputs: 
TEMP: 30  19  23  19  21 , Enable: 10010, Results: LED = 01111111, alert = 0	ok
Testing inputs: 
TEMP: 18  28  23  17  21 , Enable: 01001, Results: LED = 01111111, alert = 0	ok
Testing inputs: 
TEMP: 26  21  28  21  28 , Enable: 01001, Results: LED = 01111111, alert = 0	ok
Testing inputs: 
TEMP: 21  29  18  25  28 , Enable: 10001, Results: LED = 01111111, alert = 0	ok
Testing inputs: 
TEMP: 19  22  30  15  27 , Enable: 10100, Results: LED = 01111111, alert = 0	ok
Testing inputs: 
TEMP: 30  23  24  17  20 , Enable: 10101, Results: LED = 01111111, alert = 0	ok
Testing inputs: 
TEMP: 17  30  19  25  30 , Enable: 00111, Results: LED = 01111111, alert = 0	ok
Testing inputs: 
TEMP: 25  26  28  21  22 , Enable: 11111, Results: LED = 00111111, alert = 0	ok
Testing inputs: 
TEMP: 16  28  25  30  29 , Enable: 11010, Results: LED = 01111111, alert = 0	ok
Testing inputs: 
TEMP: 26  24  19  24  25 , Enable: 11010, Results: LED = 01111111, alert = 0	ok
Testing inputs: 
TEMP: 25  28  28  21  25 , Enable: 11011, Results: LED = 01111111, alert = 0	ok
Testing inputs: 
TEMP: 22  29  20  26  24 , Enable: 01111, Results: LED = 01111111, alert = 0	ok
Testing inputs: 
TEMP: 29  27  19  18  24 , Enable: 11101, Results: LED = 01111111, alert = 0	ok
Testing inputs: 
TEMP: 30  27  19  30  20 , Enable: 10111, Results: LED = 01111111, alert = 0	ok
Testing inputs: 
TEMP: 25  26  23  25  18 , Enable: 11110, Results: LED = 01111111, alert = 0	ok
Testing inputs: 
TEMP: 22  29  17  28  28 , Enable: 11111, Results: LED = 01111111, alert = 0	ok
Testing inputs: 
TEMP: 30  23  28  28  15 , Enable: 11111, Results: LED = 01111111, alert = 0	ok
Testing inputs: 
TEMP: 27  28  19  23  27 , Enable: 11111, Results: LED = 01111111, alert = 0	ok
Testing inputs: 
TEMP: 30  17  23  30  24 , Enable: 11111, Results: LED = 01111111, alert = 0	ok
Testing inputs: 
TEMP: 25  25  19  26  29 , Enable: 11111, Results: LED = 01111111, alert = 0	ok
Testing inputs: 
TEMP: 26  27  30  29  19 , Enable: 10101, Results: LED = 01111111, alert = 0	ok
Testing inputs: 
TEMP: 16  28  28  21  26 , Enable: 00111, Results: LED = 01111111, alert = 0	ok
Testing inputs: 
TEMP: 28  28  22  16  17 , Enable: 10100, Results: LED = 01111111, alert = 0	ok
Testing inputs: 
TEMP: 25  25  30  20  16 , Enable: 11000, Results: LED = 01111111, alert = 0	ok
Testing inputs: 
TEMP: 27  15  26  22  18 , Enable: 10110, Results: LED = 01111111, alert = 0	ok
Testing inputs: 
TEMP: 22  26  27  19  30 , Enable: 00111, Results: LED = 01111111, alert = 0	ok
Testing inputs: 
TEMP: 30  21  16  21  26 , Enable: 10010, Results: LED = 11111111, alert = 0	ok
Testing inputs: 
TEMP: 27  30  26  20  26 , Enable: 01110, Results: LED = 01111111, alert = 0	ok
Testing inputs: 
TEMP: 30  24  22  25  30 , Enable: 11100, Results: LED = 01111111, alert = 0	ok
Testing inputs: 
TEMP: 19  24  27  20  17 , Enable: 01100, Results: LED = 11111111, alert = 0	ok
Testing inputs: 
TEMP: 29  22  22  26  18 , Enable: 11010, Results: LED = 11111111, alert = 0	ok
Testing inputs: 
TEMP: 19  24  28  23  25 , Enable: 01101, Results: LED = 11111111, alert = 0	ok
Testing inputs: 
TEMP: 29  19  29  25  25 , Enable: 11101, Results: LED = 11111111, alert = 0	ok
Testing inputs: 
TEMP: 28  30  30  17  27 , Enable: 11011, Results: LED = 11111111, alert = 0	ok
Testing inputs: 
TEMP: 30  29  24  28  21 , Enable: 01111, Results: LED = 11111111, alert = 0	ok
Testing inputs: 
TEMP: 23  21  30  28  24 , Enable: 01111, Results: LED = 11111111, alert = 0	ok
Testing inputs: 
TEMP: 27  29  19  25  28 , Enable: 11111, Results: LED = 11111111, alert = 0	ok
Testing inputs: 
TEMP: 30  18  30  25  27 , Enable: 11110, Results: LED = 11111111, alert = 0	ok
Testing inputs: 
TEMP: 23  17  28  30  22 , Enable: 10111, Results: LED = 11111111, alert = 0	ok
Testing inputs: 
TEMP: 27  23  30  20  26 , Enable: 10111, Results: LED = 11111111, alert = 0	ok
Testing inputs: 
TEMP: 21  28  26  29  25 , Enable: 11111, Results: LED = 11111111, alert = 0	ok
Testing inputs: 
TEMP: 28  29  22  23  27 , Enable: 11111, Results: LED = 11111111, alert = 0	ok
Testing inputs: 
TEMP: 30  28  28  16  27 , Enable: 11111, Results: LED = 11111111, alert = 0	ok
Testing inputs: 
TEMP: 23  29  20  27  30 , Enable: 11111, Results: LED = 11111111, alert = 0	ok
Testing inputs: 
TEMP: 29  24  24  29  23 , Enable: 11111, Results: LED = 11111111, alert = 0	ok
Testing inputs: 
TEMP: 21  28  21  29  21 , Enable: 01011, Results: LED = 11111111, alert = 0	ok
Testing inputs: 
TEMP: 26  22  27  25  25 , Enable: 10110, Results: LED = 11111111, alert = 0	ok
Testing inputs: 
TEMP: 26  19  22  29  27 , Enable: 00111, Results: LED = 11111111, alert = 0	ok
Testing inputs: 
TEMP: 29  24  26  23  28 , Enable: 11111, Results: LED = 11111111, alert = 0	ok
Testing inputs: 
TEMP: 22  30  28  26  28 , Enable: 11000, Results: LED = 11111111, alert = 0	ok
Testing inputs: 
TEMP: 29  24  24  25  25 , Enable: 10011, Results: LED = 11111111, alert = 0	ok
Testing inputs: 
TEMP: 29  28  28  16  24 , Enable: 10001, Results: LED = 11111111, alert = 1	ok
Testing inputs: 
TEMP: 28  30  23  24  24 , Enable: 11110, Results: LED = 11111111, alert = 0	ok
Testing inputs: 
TEMP: 20  27  24  22  29 , Enable: 00101, Results: LED = 11111111, alert = 1	ok
Testing inputs: 
TEMP: 28  25  23  25  17 , Enable: 11000, Results: LED = 11111111, alert = 1	ok
Testing inputs: 
TEMP: 15  29  28  30  22 , Enable: 00111, Results: LED = 11111111, alert = 1	ok
Testing inputs: 
TEMP: 28  25  27  21  19 , Enable: 11100, Results: LED = 11111111, alert = 1	ok
Testing inputs: 
TEMP: 28  30  18  29  30 , Enable: 11101, Results: LED = 11111111, alert = 1	ok
Testing inputs: 
TEMP: 26  28  25  25  26 , Enable: 11001, Results: LED = 11111111, alert = 1	ok
Testing inputs: 
TEMP: 29  21  21  30  15 , Enable: 10110, Results: LED = 11111111, alert = 1	ok
Testing inputs: 
TEMP: 30  19  28  20  30 , Enable: 11101, Results: LED = 11111111, alert = 1	ok
Testing inputs: 
TEMP: 24  27  26  30  27 , Enable: 10111, Results: LED = 11111111, alert = 1	ok
Testing inputs: 
TEMP: 30  29  24  15  24 , Enable: 11101, Results: LED = 11111111, alert = 1	ok
Testing inputs: 
TEMP: 21  29  28  26  24 , Enable: 01111, Results: LED = 11111111, alert = 1	ok
Testing inputs: 
TEMP: 28  28  26  15  25 , Enable: 11101, Results: LED = 11111111, alert = 1	ok
Testing inputs: 
TEMP: 30  25  28  25  26 , Enable: 11111, Results: LED = 11111111, alert = 1	ok
Testing inputs: 
TEMP: 25  24  30  29  26 , Enable: 11111, Results: LED = 11111111, alert = 1	ok
Testing inputs: 
TEMP: 24  28  30  29  23 , Enable: 11111, Results: LED = 11111111, alert = 1	ok
Testing inputs: 
TEMP: 24  23  27  30  30 , Enable: 11111, Results: LED = 11111111, alert = 1	ok
Testing inputs: 
TEMP: 30  21  24  19  30 , Enable: 11001, Results: LED = 11111111, alert = 1	ok
Testing inputs: 
TEMP: 16  29  26  29  23 , Enable: 01011, Results: LED = 11111111, alert = 1	ok
Testing inputs: 
TEMP: 22  20  25  23  29 , Enable: 00101, Results: LED = 11111111, alert = 1	ok
Testing inputs: 
TEMP: 28  19  26  29  16 , Enable: 10100, Results: LED = 11111111, alert = 1	ok
Testing inputs: 
TEMP: 15  29  25  21  22 , Enable: 01100, Results: LED = 11111111, alert = 1	ok
Testing inputs: 
TEMP: 28  30  28  26  23 , Enable: 10110, Results: LED = 11111111, alert = 1	ok
Testing inputs: 
TEMP: 29  24  29  27  27 , Enable: 11101, Results: LED = 11111111, alert = 1	ok
Testing inputs: 
TEMP: 30  26  28  23  29 , Enable: 01001, Results: LED = 11111111, alert = 1	ok
Testing inputs: 
TEMP: 18  26  26  18  29 , Enable: 00101, Results: LED = 11111111, alert = 1	ok
Testing inputs: 
TEMP: 26  25  25  27  30 , Enable: 00111, Results: LED = 11111111, alert = 1	ok
Testing inputs: 
TEMP: 30  27  26  27  22 , Enable: 11100, Results: LED = 11111111, alert = 1	ok
Testing inputs: 
TEMP: 28  29  17  28  26 , Enable: 01011, Results: LED = 11111111, alert = 1	ok
Testing inputs: 
TEMP: 23  27  30  23  30 , Enable: 00111, Results: LED = 11111111, alert = 1	ok
Testing inputs: 
TEMP: 28  27  28  29  26 , Enable: 11011, Results: LED = 11111111, alert = 1	ok
Testing inputs: 
TEMP: 27  30  25  28  19 , Enable: 01110, Results: LED = 11111111, alert = 1	ok
Testing inputs: 
TEMP: 30  30  28  26  23 , Enable: 11101, Results: LED = 11111111, alert = 1	ok
Testing inputs: 
TEMP: 29  29  28  17  25 , Enable: 11101, Results: LED = 11111111, alert = 1	ok
Testing inputs: 
TEMP: 26  26  22  30  29 , Enable: 11011, Results: LED = 11111111, alert = 1	ok
Testing inputs: 
TEMP: 28  29  27  24  30 , Enable: 11011, Results: LED = 11111111, alert = 1	ok
Testing inputs: 
TEMP: 22  30  30  29  17 , Enable: 11110, Results: LED = 11111111, alert = 1	ok
Testing inputs: 
TEMP: 28  30  24  27  30 , Enable: 11111, Results: LED = 11111111, alert = 1	ok
Testing inputs: 
TEMP: 30  25  29  25  30 , Enable: 11111, Results: LED = 11111111, alert = 1	ok
Testing inputs: 
TEMP: 25  25  30  24  26 , Enable: 00101, Results: LED = 11111111, alert = 1	ok
Testing inputs: 
